(module LOGO (layer F.Cu)
  (at 0 0)
 (fp_text reference "G***" (at 0 0) (layer F.SilkS) hide
  (effects (font (thickness 0.3)))
  )
  (fp_text value "LOGO" (at 0.75 0) (layer F.SilkS) hide
  (effects (font (thickness 0.3)))
  )
  (fp_poly (pts (xy 5.892800 5.892800) (xy -5.892800 5.892800) (xy -5.892800 2.235200) (xy -5.080000 2.235200) (xy -5.080000 5.080000) (xy -2.235200 5.080000) (xy -2.235200 2.235200) (xy -5.080000 2.235200)
     (xy -5.892800 2.235200) (xy -5.892800 1.016000) (xy -5.080000 1.016000) (xy -5.080000 1.422400) (xy -4.673600 1.422400) (xy -4.267200 1.422400) (xy -4.267200 1.828800) (xy -3.860800 1.828800)
     (xy -3.860800 1.422400) (xy -4.267200 1.422400) (xy -4.673600 1.422400) (xy -4.673600 1.016000) (xy -5.080000 1.016000) (xy -5.892800 1.016000) (xy -5.892800 -1.828800) (xy -5.080000 -1.828800)
     (xy -5.080000 -0.609600) (xy -4.673600 -0.609600) (xy -4.673600 -0.203200) (xy -5.080000 -0.203200) (xy -5.080000 0.203200) (xy -4.673600 0.203200) (xy -4.673600 1.016000) (xy -4.267200 1.016000)
     (xy -4.267200 0.609600) (xy -3.860800 0.609600) (xy -3.860800 1.422400) (xy -3.454400 1.422400) (xy -3.454400 1.016000) (xy -3.048000 1.016000) (xy -3.048000 1.422400) (xy -2.641600 1.422400)
     (xy -2.641600 1.828800) (xy -1.828800 1.828800) (xy -1.828800 3.048000) (xy -1.422400 3.048000) (xy -1.422400 3.454400) (xy -1.828800 3.454400) (xy -1.828800 4.267200) (xy -1.016000 4.267200)
     (xy -1.016000 4.673600) (xy -1.828800 4.673600) (xy -1.828800 5.080000) (xy -0.609600 5.080000) (xy -0.609600 4.673600) (xy -0.203200 4.673600) (xy -0.203200 5.080000) (xy 0.203200 5.080000)
     (xy 0.203200 4.673600) (xy 0.609600 4.673600) (xy 0.609600 5.080000) (xy 1.016000 5.080000) (xy 1.016000 4.673600) (xy 0.609600 4.673600) (xy 0.203200 4.673600) (xy -0.203200 4.673600)
     (xy -0.609600 4.673600) (xy -0.609600 4.267200) (xy 0.609600 4.267200) (xy 1.422400 4.267200) (xy 1.422400 4.673600) (xy 2.235200 4.673600) (xy 2.235200 4.267200) (xy 1.422400 4.267200)
     (xy 0.609600 4.267200) (xy 0.609600 3.048000) (xy 0.203200 3.048000) (xy 0.203200 2.235200) (xy 1.016000 2.235200) (xy 1.016000 3.048000) (xy 1.422400 3.048000) (xy 1.422400 3.454400)
     (xy 1.016000 3.454400) (xy 1.016000 3.860800) (xy 2.641600 3.860800) (xy 2.641600 4.673600) (xy 2.235200 4.673600) (xy 2.235200 5.080000) (xy 3.048000 5.080000) (xy 3.048000 4.673600)
     (xy 3.454400 4.673600) (xy 3.454400 5.080000) (xy 3.860800 5.080000) (xy 3.860800 4.673600) (xy 4.267200 4.673600) (xy 4.267200 5.080000) (xy 5.080000 5.080000) (xy 5.080000 4.673600)
     (xy 4.267200 4.673600) (xy 4.267200 4.267200) (xy 4.673600 4.267200) (xy 4.673600 3.860800) (xy 5.080000 3.860800) (xy 5.080000 3.454400) (xy 4.673600 3.454400) (xy 4.673600 3.048000)
     (xy 5.080000 3.048000) (xy 5.080000 2.235200) (xy 4.673600 2.235200) (xy 4.673600 1.422400) (xy 5.080000 1.422400) (xy 5.080000 1.016000) (xy 4.673600 1.016000) (xy 4.673600 -0.203200)
     (xy 4.267200 -0.203200) (xy 4.267200 -0.609600) (xy 3.860800 -0.609600) (xy 3.860800 -1.016000) (xy 3.454400 -1.016000) (xy 3.454400 -0.609600) (xy 3.048000 -0.609600) (xy 3.048000 -0.203200)
     (xy 1.016000 -0.203200) (xy 1.016000 0.203200) (xy 0.609600 0.203200) (xy 0.609600 -0.609600) (xy 0.203200 -0.609600) (xy 0.203200 0.609600) (xy -0.203200 0.609600) (xy -0.203200 -0.609600)
     (xy -1.422400 -0.609600) (xy -1.422400 -0.203200) (xy -1.828800 -0.203200) (xy -1.828800 -1.016000) (xy -1.016000 -1.016000) (xy -1.016000 -1.422400) (xy -0.609600 -1.422400) (xy -0.609600 -1.016000)
     (xy -0.203200 -1.016000) (xy -0.203200 -1.422400) (xy 0.203200 -1.422400) (xy 0.203200 -1.828800) (xy -0.203200 -1.828800) (xy -0.203200 -2.235200) (xy -0.609600 -2.235200) (xy -0.609600 -2.641600)
     (xy -0.203200 -2.641600) (xy -0.203200 -2.235200) (xy 0.203200 -2.235200) (xy 0.203200 -2.641600) (xy -0.203200 -2.641600) (xy -0.609600 -2.641600) (xy -0.609600 -3.048000) (xy -1.422400 -3.048000)
     (xy -1.422400 -2.641600) (xy -1.828800 -2.641600) (xy -1.828800 -1.828800) (xy -3.048000 -1.828800) (xy -3.048000 -1.016000) (xy -3.454400 -1.016000) (xy -3.454400 -1.828800) (xy -4.267200 -1.828800)
     (xy -4.267200 -1.422400) (xy -4.673600 -1.422400) (xy -4.673600 -1.828800) (xy -5.080000 -1.828800) (xy -5.892800 -1.828800) (xy -5.892800 -5.080000) (xy -5.080000 -5.080000) (xy -5.080000 -2.235200)
     (xy -2.235200 -2.235200) (xy -2.235200 -5.080000) (xy -1.828800 -5.080000) (xy -1.828800 -4.267200) (xy -1.422400 -4.267200) (xy -1.422400 -3.860800) (xy -1.828800 -3.860800) (xy -1.828800 -3.454400)
     (xy -1.016000 -3.454400) (xy -0.203200 -3.454400) (xy 0.203200 -3.454400) (xy 0.203200 -3.048000) (xy 0.609600 -3.048000) (xy 0.609600 -1.828800) (xy 1.016000 -1.828800) (xy 1.016000 -1.422400)
     (xy 0.609600 -1.422400) (xy 0.609600 -1.016000) (xy 1.828800 -1.016000) (xy 1.828800 -0.609600) (xy 3.048000 -0.609600) (xy 3.048000 -1.422400) (xy 2.641600 -1.422400) (xy 2.641600 -1.828800)
     (xy 3.454400 -1.828800) (xy 3.454400 -1.422400) (xy 3.860800 -1.422400) (xy 3.860800 -1.828800) (xy 4.267200 -1.828800) (xy 4.267200 -1.422400) (xy 4.673600 -1.422400) (xy 4.673600 -1.016000)
     (xy 5.080000 -1.016000) (xy 5.080000 -1.828800) (xy 4.267200 -1.828800) (xy 3.860800 -1.828800) (xy 3.454400 -1.828800) (xy 2.641600 -1.828800) (xy 2.235200 -1.828800) (xy 2.235200 -1.016000)
     (xy 1.828800 -1.016000) (xy 1.828800 -1.422400) (xy 1.422400 -1.422400) (xy 1.422400 -1.828800) (xy 1.828800 -1.828800) (xy 1.828800 -2.641600) (xy 1.422400 -2.641600) (xy 1.422400 -2.235200)
     (xy 1.016000 -2.235200) (xy 1.016000 -3.454400) (xy 1.422400 -3.454400) (xy 1.422400 -3.048000) (xy 1.828800 -3.048000) (xy 1.828800 -3.860800) (xy 1.422400 -3.860800) (xy 1.422400 -4.267200)
     (xy 1.016000 -4.267200) (xy 1.016000 -5.080000) (xy 2.235200 -5.080000) (xy 2.235200 -2.235200) (xy 5.080000 -2.235200) (xy 5.080000 -5.080000) (xy 2.235200 -5.080000) (xy 1.016000 -5.080000)
     (xy 0.609600 -5.080000) (xy 0.609600 -4.673600) (xy 0.203200 -4.673600) (xy 0.203200 -3.860800) (xy -0.203200 -3.860800) (xy -0.203200 -3.454400) (xy -1.016000 -3.454400) (xy -1.016000 -4.267200)
     (xy -0.609600 -4.267200) (xy -0.609600 -3.860800) (xy -0.203200 -3.860800) (xy -0.203200 -4.267200) (xy -0.609600 -4.267200) (xy -0.609600 -5.080000) (xy -1.828800 -5.080000) (xy -2.235200 -5.080000)
     (xy -5.080000 -5.080000) (xy -5.892800 -5.080000) (xy -5.892800 -5.892800) (xy 5.892800 -5.892800) (xy 5.892800 5.892800) )(layer F.SilkS) (width  0.010000)
  )
  (fp_poly (pts (xy -2.661920 4.653280) (xy -4.653280 4.653280) (xy -4.653280 3.048000) (xy -4.267200 3.048000) (xy -4.267200 4.267200) (xy -3.048000 4.267200) (xy -3.048000 3.048000) (xy -4.267200 3.048000)
     (xy -4.653280 3.048000) (xy -4.653280 2.661920) (xy -2.661920 2.661920) (xy -2.661920 4.653280) )(layer F.SilkS) (width  0.010000)
  )
  (fp_poly (pts (xy -0.609600 3.454400) (xy -0.203200 3.454400) (xy -0.203200 3.860800) (xy -0.609600 3.860800) (xy -0.609600 3.454400) )(layer F.SilkS) (width  0.010000)
  )
  (fp_poly (pts (xy -1.422400 3.860800) (xy -1.422400 3.454400) (xy -1.016000 3.454400) (xy -1.016000 3.860800) (xy -1.422400 3.860800) )(layer F.SilkS) (width  0.010000)
  )
  (fp_poly (pts (xy -0.609600 4.267200) (xy -1.016000 4.267200) (xy -1.016000 3.860800) (xy -0.609600 3.860800) (xy -0.609600 4.267200) )(layer F.SilkS) (width  0.010000)
  )
  (fp_poly (pts (xy 4.267200 4.267200) (xy 3.860800 4.267200) (xy 3.860800 3.860800) (xy 4.267200 3.860800) (xy 4.267200 4.267200) )(layer F.SilkS) (width  0.010000)
  )
  (fp_poly (pts (xy 3.454400 3.860800) (xy 3.048000 3.860800) (xy 3.048000 3.454400) (xy 3.454400 3.454400) (xy 3.454400 3.860800) )(layer F.SilkS) (width  0.010000)
  )
  (fp_poly (pts (xy 3.860800 2.235200) (xy 4.267200 2.235200) (xy 4.267200 3.048000) (xy 3.860800 3.048000) (xy 3.860800 2.235200) )(layer F.SilkS) (width  0.010000)
  )
  (fp_poly (pts (xy 3.454400 3.048000) (xy 3.860800 3.048000) (xy 3.860800 3.454400) (xy 3.454400 3.454400) (xy 3.454400 3.048000) )(layer F.SilkS) (width  0.010000)
  )
  (fp_poly (pts (xy -0.203200 3.048000) (xy -1.422400 3.048000) (xy -1.422400 2.641600) (xy -0.203200 2.641600) (xy -0.203200 3.048000) )(layer F.SilkS) (width  0.010000)
  )
  (fp_poly (pts (xy 3.048000 3.048000) (xy 1.828800 3.048000) (xy 1.828800 2.235200) (xy 2.235200 2.235200) (xy 2.235200 2.641600) (xy 2.641600 2.641600) (xy 2.641600 2.235200) (xy 2.235200 2.235200)
     (xy 1.828800 2.235200) (xy 1.828800 1.828800) (xy 3.048000 1.828800) (xy 3.048000 3.048000) )(layer F.SilkS) (width  0.010000)
  )
  (fp_poly (pts (xy 0.203200 1.828800) (xy -0.203200 1.828800) (xy -0.203200 2.235200) (xy -1.016000 2.235200) (xy -1.016000 1.422400) (xy -0.609600 1.422400) (xy -0.609600 1.828800) (xy -0.203200 1.828800)
     (xy -0.203200 1.422400) (xy -0.609600 1.422400) (xy -0.609600 0.609600) (xy -0.203200 0.609600) (xy -0.203200 1.422400) (xy 0.203200 1.422400) (xy 0.203200 1.828800) )(layer F.SilkS) (width  0.010000)
  )
  (fp_poly (pts (xy -0.609600 0.609600) (xy -1.422400 0.609600) (xy -1.422400 1.016000) (xy -1.016000 1.016000) (xy -1.016000 1.422400) (xy -1.422400 1.422400) (xy -1.422400 1.828800) (xy -1.828800 1.828800)
     (xy -1.828800 0.609600) (xy -3.048000 0.609600) (xy -3.048000 0.203200) (xy -1.422400 0.203200) (xy -1.422400 -0.203200) (xy -0.609600 -0.203200) (xy -0.609600 0.609600) )(layer F.SilkS) (width  0.010000)
  )
  (fp_poly (pts (xy 0.203200 0.609600) (xy 0.609600 0.609600) (xy 0.609600 1.016000) (xy 1.016000 1.016000) (xy 1.016000 0.203200) (xy 1.422400 0.203200) (xy 1.422400 0.609600) (xy 1.828800 0.609600)
     (xy 1.828800 1.016000) (xy 1.422400 1.016000) (xy 1.422400 1.422400) (xy 0.203200 1.422400) (xy 0.203200 0.609600) )(layer F.SilkS) (width  0.010000)
  )
  (fp_poly (pts (xy 1.422400 2.235200) (xy 1.016000 2.235200) (xy 1.016000 1.828800) (xy 1.422400 1.828800) (xy 1.422400 2.235200) )(layer F.SilkS) (width  0.010000)
  )
  (fp_poly (pts (xy 4.267200 0.609600) (xy 4.267200 1.016000) (xy 4.673600 1.016000) (xy 4.673600 1.422400) (xy 4.267200 1.422400) (xy 4.267200 1.828800) (xy 3.860800 1.828800) (xy 3.860800 1.422400)
     (xy 3.454400 1.422400) (xy 3.454400 1.016000) (xy 3.048000 1.016000) (xy 3.048000 1.422400) (xy 2.235200 1.422400) (xy 2.235200 1.016000) (xy 2.641600 1.016000) (xy 2.641600 0.609600)
     (xy 4.267200 0.609600) )(layer F.SilkS) (width  0.010000)
  )
  (fp_poly (pts (xy 2.235200 0.609600) (xy 2.235200 0.203200) (xy 2.641600 0.203200) (xy 2.641600 0.609600) (xy 2.235200 0.609600) )(layer F.SilkS) (width  0.010000)
  )
  (fp_poly (pts (xy -2.235200 1.422400) (xy -2.641600 1.422400) (xy -2.641600 1.016000) (xy -2.235200 1.016000) (xy -2.235200 1.422400) )(layer F.SilkS) (width  0.010000)
  )
  (fp_poly (pts (xy 3.454400 0.203200) (xy 3.048000 0.203200) (xy 3.048000 -0.203200) (xy 3.454400 -0.203200) (xy 3.454400 0.203200) )(layer F.SilkS) (width  0.010000)
  )
  (fp_poly (pts (xy 4.267200 0.203200) (xy 3.860800 0.203200) (xy 3.860800 -0.203200) (xy 4.267200 -0.203200) (xy 4.267200 0.203200) )(layer F.SilkS) (width  0.010000)
  )
  (fp_poly (pts (xy -3.454400 -1.016000) (xy -3.454400 -0.203200) (xy -4.267200 -0.203200) (xy -4.267200 -0.609600) (xy -3.860800 -0.609600) (xy -3.860800 -1.016000) (xy -3.454400 -1.016000) )(layer F.SilkS) (width  0.010000)
  )
  (fp_poly (pts (xy -4.267200 -1.016000) (xy -4.267200 -1.422400) (xy -3.860800 -1.422400) (xy -3.860800 -1.016000) (xy -4.267200 -1.016000) )(layer F.SilkS) (width  0.010000)
  )
  (fp_poly (pts (xy -2.641600 -0.609600) (xy -2.235200 -0.609600) (xy -2.235200 -0.203200) (xy -3.048000 -0.203200) (xy -3.048000 -1.016000) (xy -2.641600 -1.016000) (xy -2.641600 -0.609600) )(layer F.SilkS) (width  0.010000)
  )
  (fp_poly (pts (xy -1.422400 -2.641600) (xy -1.016000 -2.641600) (xy -1.016000 -1.828800) (xy -1.422400 -1.828800) (xy -1.422400 -2.641600) )(layer F.SilkS) (width  0.010000)
  )
  (fp_poly (pts (xy -1.828800 -1.828800) (xy -1.422400 -1.828800) (xy -1.422400 -1.422400) (xy -1.828800 -1.422400) (xy -1.828800 -1.828800) )(layer F.SilkS) (width  0.010000)
  )
  (fp_poly (pts (xy -2.641600 -1.422400) (xy -1.828800 -1.422400) (xy -1.828800 -1.016000) (xy -2.641600 -1.016000) (xy -2.641600 -1.422400) )(layer F.SilkS) (width  0.010000)
  )
  (fp_poly (pts (xy -0.203200 -1.422400) (xy -0.609600 -1.422400) (xy -0.609600 -1.828800) (xy -0.203200 -1.828800) (xy -0.203200 -1.422400) )(layer F.SilkS) (width  0.010000)
  )
  (fp_poly (pts (xy 1.016000 -3.454400) (xy 0.609600 -3.454400) (xy 0.609600 -4.267200) (xy 1.016000 -4.267200) (xy 1.016000 -3.454400) )(layer F.SilkS) (width  0.010000)
  )
  (fp_poly (pts (xy -1.016000 -4.267200) (xy -1.422400 -4.267200) (xy -1.422400 -4.673600) (xy -1.016000 -4.673600) (xy -1.016000 -4.267200) )(layer F.SilkS) (width  0.010000)
  )
  (fp_poly (pts (xy -2.661920 -2.661920) (xy -4.653280 -2.661920) (xy -4.653280 -4.267200) (xy -4.267200 -4.267200) (xy -4.267200 -3.048000) (xy -3.048000 -3.048000) (xy -3.048000 -4.267200) (xy -4.267200 -4.267200)
     (xy -4.653280 -4.267200) (xy -4.653280 -4.653280) (xy -2.661920 -4.653280) (xy -2.661920 -2.661920) )(layer F.SilkS) (width  0.010000)
  )
  (fp_poly (pts (xy 4.653280 -2.661920) (xy 2.661920 -2.661920) (xy 2.661920 -4.267200) (xy 3.048000 -4.267200) (xy 3.048000 -3.048000) (xy 4.267200 -3.048000) (xy 4.267200 -4.267200) (xy 3.048000 -4.267200)
     (xy 2.661920 -4.267200) (xy 2.661920 -4.653280) (xy 4.653280 -4.653280) (xy 4.653280 -2.661920) )(layer F.SilkS) (width  0.010000)
  )
)
