(module GS008-6.35-03P-1x-xxx_SCREWTERMINAL_1x3 (layer F.Cu) (tedit 60BE09D2)
  (fp_text reference REF** (at 8.3 6.85) (layer F.SilkS)
    (effects (font (size 0.6 0.6) (thickness 0.127)))
  )
  (fp_text value GS008-6.35-03P-1x-xxx_SCREWTERMINAL_1x3 (at 0 -7.15) (layer F.Fab)
    (effects (font (size 0.6 0.6) (thickness 0.127)))
  )
  (fp_line (start -9.525 6.3) (end -9.525 -6.3) (layer F.SilkS) (width 0.15))
  (fp_line (start 9.525 6.3) (end -9.525 6.3) (layer F.SilkS) (width 0.15))
  (fp_line (start 9.525 -6.3) (end 9.525 6.3) (layer F.SilkS) (width 0.15))
  (fp_line (start -9.525 -6.3) (end 9.525 -6.3) (layer F.SilkS) (width 0.15))
  (pad 1 thru_hole circle (at -6.35 -1.6) (size 3 3) (drill 1.6) (layers *.Cu *.Mask))
  (pad 2 thru_hole circle (at 0 -1.6) (size 3 3) (drill 1.6) (layers *.Cu *.Mask))
  (pad 3 thru_hole circle (at 6.35 -1.6) (size 3 3) (drill 1.6) (layers *.Cu *.Mask))
  (model "${KIPRJMOD}/galactose-kicad-library/3D Packages/SCREW_TERMINALS_1x3_6_35MM.stp"
    (offset (xyz 9.550000000000001 -6.3 0))
    (scale (xyz 1 1 1))
    (rotate (xyz -90 0 -90))
  )
)
