(module L_1008_2520Metric (layer F.Cu) (tedit 6194B23E)
  (fp_text reference REF** (at 0 -1.79) (layer F.SilkS)
    (effects (font (size 0.6 0.6) (thickness 0.127)))
  )
  (fp_text value L_1008_2520Metric (at 0 2) (layer F.Fab)
    (effects (font (size 1 1) (thickness 0.15)))
  )
  (fp_line (start 1.25 -1) (end -1.25 -1) (layer F.Fab) (width 0.12))
  (fp_line (start 1.25 1) (end 1.25 -1) (layer F.Fab) (width 0.12))
  (fp_line (start -1.25 1) (end 1.25 1) (layer F.Fab) (width 0.12))
  (fp_line (start -1.25 -1) (end -1.25 1) (layer F.Fab) (width 0.12))
  (fp_line (start -0.5 1.1) (end 0.5 1.1) (layer F.SilkS) (width 0.15))
  (fp_line (start -0.5 -1.1) (end 0.5 -1.1) (layer F.SilkS) (width 0.15))
  (pad 1 smd rect (at -1.25 0) (size 1.2 2.2) (layers F.Cu F.Paste F.Mask))
  (pad 2 smd rect (at 1.25 0) (size 1.2 2.2) (layers F.Cu F.Paste F.Mask))
)
