(module LED-0603 (layer F.Cu) (tedit 60F82A19)
  (descr "LED 0603 SMT")
  (tags "LED 0603 SMT")
  (attr smd)
  (fp_text reference >NAME (at 0 -1.016) (layer F.SilkS)
    (effects (font (size 0.6096 0.6096) (thickness 0.127)))
  )
  (fp_text value >VALUE (at 0 1.016) (layer F.SilkS)
    (effects (font (size 0.6096 0.6096) (thickness 0.127)))
  )
  (fp_line (start -0.15748 0.3175) (end -0.16 -0.3175) (layer F.SilkS) (width 0.127))
  (fp_line (start 1.5875 -0.47498) (end 1.5875 0.47498) (layer F.SilkS) (width 0.127))
  (fp_line (start 0.15748 -0.47498) (end 0.15748 0) (layer F.SilkS) (width 0.127))
  (fp_line (start 0.15748 0) (end 0.15748 0.47498) (layer F.SilkS) (width 0.127))
  (fp_line (start 0.15748 0) (end -0.15748 -0.3175) (layer F.SilkS) (width 0.127))
  (fp_line (start 0.15748 0) (end -0.15748 0.3175) (layer F.SilkS) (width 0.127))
  (pad 1 smd rect (at 0.8763 0 270) (size 0.99822 0.99822) (layers F.Cu F.Paste F.Mask)
    (solder_mask_margin 0.1016))
  (pad 2 smd rect (at -0.8763 0 270) (size 0.99822 0.99822) (layers F.Cu F.Paste F.Mask)
    (solder_mask_margin 0.1016))
)
